<?xml version="1.0" encoding="UTF-8" standalone="no"?>
<svg xmlns="http://www.w3.org/2000/svg"
     xmlns:xlink="http://www.w3.org/1999/xlink"
     xmlns:inkscape="http://www.inkscape.org/namespaces/inkscape"
     width="32" height="32"
     inkscape:hotspot_x="4"
     inkscape:hotspot_y="4"
     style="fill:gray;stroke:black">

  <style>@import './cursors.css';</style>

  <defs>
  </defs>

  <!-- Cross (centered on hotspot) -->
  <use xlink:href="-common.svg#def-cross"/>


  <!-- "A"  -->
  <g id="cursor" class="drop-shadow" style="">
    <!-- Outline -->
    <path d="m 14,7.5 h 4 l 5.5,16 h -4 l -1,-3 h -5 l -1,3 h -4 z"
          style="fill:white;stroke:white;stroke-width:3px"/>

    <!-- Letter -->
    <path d="m 14,17.5 h 4 l -2,-6.5 z m 0,-10 h 4 l 5.5,16 h -4 l -1,-3 h -5 l -1,3 h -4 z"
          style="fill:black;stroke:black;stroke-width:1px"/>
  </g>
</svg>
